…
``` r
cytof_data <- read.csv("E:/Downloads/cytof_one_experiment.csv")


cytof_pl <- cytof_data %>% 
  pivot_longer(
    cols = everything(),
    names_to = "protein",
    values_to = "amount",
  )
cytof_pl
```

    ## # A tibble: 1,750,000 × 2
    ##    protein   amount
    ##    <chr>      <dbl>
    ##  1 NKp30      0.188
    ##  2 KIR3DL1    3.62 
    ##  3 NKp44     -0.561
    ##  4 KIR2DL1   -0.294
    ##  5 GranzymeB  2.48 
    ##  6 CXCR6     -0.145
    ##  7 CD161     -0.315
    ##  8 KIR2DS4    1.94 
    ##  9 NKp46      4.08 
    ## 10 NKG2D      2.62 
    ## # ℹ 1,749,990 more rows

``` r
protein_level <- cytof_pl %>%
  group_by(protein) %>%
  summarise(Median = median(amount, na.rm = TRUE),
            MAD = mad(amount, na.rm =  TRUE)) 

protein_level
```

    ## # A tibble: 35 × 3
    ##    protein  Median   MAD
    ##    <chr>     <dbl> <dbl>
    ##  1 CD107a  -0.122  0.609
    ##  2 CD16     5.12   0.874
    ##  3 CD161    0.726  1.69 
    ##  4 CD2      3.95   1.68 
    ##  5 CD4     -0.204  0.395
    ##  6 CD56     5.71   0.998
    ##  7 CD57     3.07   1.99 
    ##  8 CD69     4.59   1.02 
    ##  9 CD8      2.40   2.29 
    ## 10 CXCR6   -0.0581 0.727
    ## # ℹ 25 more rows
…
